%YAML 1.1
%TAG !u! tag:unity3d.com,2011:
--- !u!114 &11400000
MonoBehaviour:
  m_ObjectHideFlags: 0
  m_CorrespondingSourceObject: {fileID: 0}
  m_PrefabInstance: {fileID: 0}
  m_PrefabAsset: {fileID: 0}
  m_GameObject: {fileID: 0}
  m_Enabled: 1
  m_EditorHideFlags: 0
  m_Script: {fileID: 11500000, guid: e799b820c7e959e43b3aee9b8140d319, type: 3}
  m_Name: Encounter Armor shop Data
  m_EditorClassIdentifier: 
  playerPosition: {x: -17.5, y: -39.5, z: 0}
  SelectedEnemy: 0
  data: []
