%YAML 1.1
%TAG !u! tag:unity3d.com,2011:
--- !u!114 &11400000
MonoBehaviour:
  m_ObjectHideFlags: 0
  m_CorrespondingSourceObject: {fileID: 0}
  m_PrefabInstance: {fileID: 0}
  m_PrefabAsset: {fileID: 0}
  m_GameObject: {fileID: 0}
  m_Enabled: 1
  m_EditorHideFlags: 0
  m_Script: {fileID: 11500000, guid: bc0b9d4e1f364dd49ba1bb87c6213796, type: 3}
  m_Name: Slam
  m_EditorClassIdentifier: 
  damage: 4
  vfx: {fileID: 7495517060064693763, guid: 5f71e7b8d5286064facd3e94a87cc121, type: 3}
  scale: {x: -1, y: -1, z: 1}
