%YAML 1.1
%TAG !u! tag:unity3d.com,2011:
--- !u!1 &2178490390688551137
GameObject:
  m_ObjectHideFlags: 0
  m_CorrespondingSourceObject: {fileID: 0}
  m_PrefabInstance: {fileID: 0}
  m_PrefabAsset: {fileID: 0}
  serializedVersion: 6
  m_Component:
  - component: {fileID: 8407560614280194504}
  - component: {fileID: 2534964455332895969}
  m_Layer: 31
  m_Name: GrassPal
  m_TagString: Untagged
  m_Icon: {fileID: 0}
  m_NavMeshLayer: 0
  m_StaticEditorFlags: 0
  m_IsActive: 1
--- !u!4 &8407560614280194504
Transform:
  m_ObjectHideFlags: 0
  m_CorrespondingSourceObject: {fileID: 0}
  m_PrefabInstance: {fileID: 0}
  m_PrefabAsset: {fileID: 0}
  m_GameObject: {fileID: 2178490390688551137}
  m_LocalRotation: {x: 0, y: 0, z: 0, w: 1}
  m_LocalPosition: {x: 0, y: 0, z: 0}
  m_LocalScale: {x: 1, y: 1, z: 1}
  m_Children:
  - {fileID: 1069974390734404068}
  m_Father: {fileID: 0}
  m_RootOrder: 0
  m_LocalEulerAnglesHint: {x: 0, y: 0, z: 0}
--- !u!156049354 &2534964455332895969
Grid:
  m_ObjectHideFlags: 0
  m_CorrespondingSourceObject: {fileID: 0}
  m_PrefabInstance: {fileID: 0}
  m_PrefabAsset: {fileID: 0}
  m_GameObject: {fileID: 2178490390688551137}
  m_Enabled: 1
  m_CellSize: {x: 1, y: 1, z: 0}
  m_CellGap: {x: 0, y: 0, z: 0}
  m_CellLayout: 0
  m_CellSwizzle: 0
--- !u!1 &6868368698242074875
GameObject:
  m_ObjectHideFlags: 0
  m_CorrespondingSourceObject: {fileID: 0}
  m_PrefabInstance: {fileID: 0}
  m_PrefabAsset: {fileID: 0}
  serializedVersion: 6
  m_Component:
  - component: {fileID: 1069974390734404068}
  - component: {fileID: 4845438905153575887}
  - component: {fileID: 6202583223144919467}
  m_Layer: 31
  m_Name: Layer1
  m_TagString: Untagged
  m_Icon: {fileID: 0}
  m_NavMeshLayer: 0
  m_StaticEditorFlags: 0
  m_IsActive: 1
--- !u!4 &1069974390734404068
Transform:
  m_ObjectHideFlags: 0
  m_CorrespondingSourceObject: {fileID: 0}
  m_PrefabInstance: {fileID: 0}
  m_PrefabAsset: {fileID: 0}
  m_GameObject: {fileID: 6868368698242074875}
  m_LocalRotation: {x: -0, y: -0, z: -0, w: 1}
  m_LocalPosition: {x: 0, y: 0, z: 0}
  m_LocalScale: {x: 1, y: 1, z: 1}
  m_Children: []
  m_Father: {fileID: 8407560614280194504}
  m_RootOrder: 0
  m_LocalEulerAnglesHint: {x: 0, y: 0, z: 0}
--- !u!1839735485 &4845438905153575887
Tilemap:
  m_ObjectHideFlags: 0
  m_CorrespondingSourceObject: {fileID: 0}
  m_PrefabInstance: {fileID: 0}
  m_PrefabAsset: {fileID: 0}
  m_GameObject: {fileID: 6868368698242074875}
  m_Enabled: 1
  m_Tiles:
  - first: {x: -1, y: -6, z: 0}
    second:
      m_TileIndex: 40
      m_TileSpriteIndex: 40
      m_TileMatrixIndex: 0
      m_TileColorIndex: 0
      m_ObjectToInstantiate: {fileID: 0}
      m_TileFlags: 1
      m_ColliderType: 1
  - first: {x: 0, y: -6, z: 0}
    second:
      m_TileIndex: 41
      m_TileSpriteIndex: 41
      m_TileMatrixIndex: 0
      m_TileColorIndex: 0
      m_ObjectToInstantiate: {fileID: 0}
      m_TileFlags: 1
      m_ColliderType: 1
  - first: {x: 1, y: -6, z: 0}
    second:
      m_TileIndex: 42
      m_TileSpriteIndex: 42
      m_TileMatrixIndex: 0
      m_TileColorIndex: 0
      m_ObjectToInstantiate: {fileID: 0}
      m_TileFlags: 1
      m_ColliderType: 1
  - first: {x: 2, y: -6, z: 0}
    second:
      m_TileIndex: 43
      m_TileSpriteIndex: 43
      m_TileMatrixIndex: 0
      m_TileColorIndex: 0
      m_ObjectToInstantiate: {fileID: 0}
      m_TileFlags: 1
      m_ColliderType: 1
  - first: {x: 3, y: -6, z: 0}
    second:
      m_TileIndex: 44
      m_TileSpriteIndex: 44
      m_TileMatrixIndex: 0
      m_TileColorIndex: 0
      m_ObjectToInstantiate: {fileID: 0}
      m_TileFlags: 1
      m_ColliderType: 1
  - first: {x: 4, y: -6, z: 0}
    second:
      m_TileIndex: 45
      m_TileSpriteIndex: 45
      m_TileMatrixIndex: 0
      m_TileColorIndex: 0
      m_ObjectToInstantiate: {fileID: 0}
      m_TileFlags: 1
      m_ColliderType: 1
  - first: {x: 5, y: -6, z: 0}
    second:
      m_TileIndex: 46
      m_TileSpriteIndex: 46
      m_TileMatrixIndex: 0
      m_TileColorIndex: 0
      m_ObjectToInstantiate: {fileID: 0}
      m_TileFlags: 1
      m_ColliderType: 1
  - first: {x: -1, y: -5, z: 0}
    second:
      m_TileIndex: 32
      m_TileSpriteIndex: 32
      m_TileMatrixIndex: 0
      m_TileColorIndex: 0
      m_ObjectToInstantiate: {fileID: 0}
      m_TileFlags: 1
      m_ColliderType: 1
  - first: {x: 0, y: -5, z: 0}
    second:
      m_TileIndex: 33
      m_TileSpriteIndex: 33
      m_TileMatrixIndex: 0
      m_TileColorIndex: 0
      m_ObjectToInstantiate: {fileID: 0}
      m_TileFlags: 1
      m_ColliderType: 1
  - first: {x: 1, y: -5, z: 0}
    second:
      m_TileIndex: 34
      m_TileSpriteIndex: 34
      m_TileMatrixIndex: 0
      m_TileColorIndex: 0
      m_ObjectToInstantiate: {fileID: 0}
      m_TileFlags: 1
      m_ColliderType: 1
  - first: {x: 2, y: -5, z: 0}
    second:
      m_TileIndex: 35
      m_TileSpriteIndex: 35
      m_TileMatrixIndex: 0
      m_TileColorIndex: 0
      m_ObjectToInstantiate: {fileID: 0}
      m_TileFlags: 1
      m_ColliderType: 1
  - first: {x: 3, y: -5, z: 0}
    second:
      m_TileIndex: 36
      m_TileSpriteIndex: 36
      m_TileMatrixIndex: 0
      m_TileColorIndex: 0
      m_ObjectToInstantiate: {fileID: 0}
      m_TileFlags: 1
      m_ColliderType: 1
  - first: {x: 4, y: -5, z: 0}
    second:
      m_TileIndex: 37
      m_TileSpriteIndex: 37
      m_TileMatrixIndex: 0
      m_TileColorIndex: 0
      m_ObjectToInstantiate: {fileID: 0}
      m_TileFlags: 1
      m_ColliderType: 1
  - first: {x: 5, y: -5, z: 0}
    second:
      m_TileIndex: 38
      m_TileSpriteIndex: 38
      m_TileMatrixIndex: 0
      m_TileColorIndex: 0
      m_ObjectToInstantiate: {fileID: 0}
      m_TileFlags: 1
      m_ColliderType: 1
  - first: {x: 6, y: -5, z: 0}
    second:
      m_TileIndex: 39
      m_TileSpriteIndex: 39
      m_TileMatrixIndex: 0
      m_TileColorIndex: 0
      m_ObjectToInstantiate: {fileID: 0}
      m_TileFlags: 1
      m_ColliderType: 1
  - first: {x: -1, y: -4, z: 0}
    second:
      m_TileIndex: 24
      m_TileSpriteIndex: 24
      m_TileMatrixIndex: 0
      m_TileColorIndex: 0
      m_ObjectToInstantiate: {fileID: 0}
      m_TileFlags: 1
      m_ColliderType: 1
  - first: {x: 0, y: -4, z: 0}
    second:
      m_TileIndex: 25
      m_TileSpriteIndex: 25
      m_TileMatrixIndex: 0
      m_TileColorIndex: 0
      m_ObjectToInstantiate: {fileID: 0}
      m_TileFlags: 1
      m_ColliderType: 1
  - first: {x: 1, y: -4, z: 0}
    second:
      m_TileIndex: 26
      m_TileSpriteIndex: 26
      m_TileMatrixIndex: 0
      m_TileColorIndex: 0
      m_ObjectToInstantiate: {fileID: 0}
      m_TileFlags: 1
      m_ColliderType: 1
  - first: {x: 2, y: -4, z: 0}
    second:
      m_TileIndex: 27
      m_TileSpriteIndex: 27
      m_TileMatrixIndex: 0
      m_TileColorIndex: 0
      m_ObjectToInstantiate: {fileID: 0}
      m_TileFlags: 1
      m_ColliderType: 1
  - first: {x: 3, y: -4, z: 0}
    second:
      m_TileIndex: 28
      m_TileSpriteIndex: 28
      m_TileMatrixIndex: 0
      m_TileColorIndex: 0
      m_ObjectToInstantiate: {fileID: 0}
      m_TileFlags: 1
      m_ColliderType: 1
  - first: {x: 4, y: -4, z: 0}
    second:
      m_TileIndex: 29
      m_TileSpriteIndex: 29
      m_TileMatrixIndex: 0
      m_TileColorIndex: 0
      m_ObjectToInstantiate: {fileID: 0}
      m_TileFlags: 1
      m_ColliderType: 1
  - first: {x: 5, y: -4, z: 0}
    second:
      m_TileIndex: 30
      m_TileSpriteIndex: 30
      m_TileMatrixIndex: 0
      m_TileColorIndex: 0
      m_ObjectToInstantiate: {fileID: 0}
      m_TileFlags: 1
      m_ColliderType: 1
  - first: {x: 6, y: -4, z: 0}
    second:
      m_TileIndex: 31
      m_TileSpriteIndex: 31
      m_TileMatrixIndex: 0
      m_TileColorIndex: 0
      m_ObjectToInstantiate: {fileID: 0}
      m_TileFlags: 1
      m_ColliderType: 1
  - first: {x: -1, y: -3, z: 0}
    second:
      m_TileIndex: 16
      m_TileSpriteIndex: 16
      m_TileMatrixIndex: 0
      m_TileColorIndex: 0
      m_ObjectToInstantiate: {fileID: 0}
      m_TileFlags: 1
      m_ColliderType: 1
  - first: {x: 0, y: -3, z: 0}
    second:
      m_TileIndex: 17
      m_TileSpriteIndex: 17
      m_TileMatrixIndex: 0
      m_TileColorIndex: 0
      m_ObjectToInstantiate: {fileID: 0}
      m_TileFlags: 1
      m_ColliderType: 1
  - first: {x: 1, y: -3, z: 0}
    second:
      m_TileIndex: 18
      m_TileSpriteIndex: 18
      m_TileMatrixIndex: 0
      m_TileColorIndex: 0
      m_ObjectToInstantiate: {fileID: 0}
      m_TileFlags: 1
      m_ColliderType: 1
  - first: {x: 2, y: -3, z: 0}
    second:
      m_TileIndex: 19
      m_TileSpriteIndex: 19
      m_TileMatrixIndex: 0
      m_TileColorIndex: 0
      m_ObjectToInstantiate: {fileID: 0}
      m_TileFlags: 1
      m_ColliderType: 1
  - first: {x: 3, y: -3, z: 0}
    second:
      m_TileIndex: 20
      m_TileSpriteIndex: 20
      m_TileMatrixIndex: 0
      m_TileColorIndex: 0
      m_ObjectToInstantiate: {fileID: 0}
      m_TileFlags: 1
      m_ColliderType: 1
  - first: {x: 4, y: -3, z: 0}
    second:
      m_TileIndex: 21
      m_TileSpriteIndex: 21
      m_TileMatrixIndex: 0
      m_TileColorIndex: 0
      m_ObjectToInstantiate: {fileID: 0}
      m_TileFlags: 1
      m_ColliderType: 1
  - first: {x: 5, y: -3, z: 0}
    second:
      m_TileIndex: 22
      m_TileSpriteIndex: 22
      m_TileMatrixIndex: 0
      m_TileColorIndex: 0
      m_ObjectToInstantiate: {fileID: 0}
      m_TileFlags: 1
      m_ColliderType: 1
  - first: {x: 6, y: -3, z: 0}
    second:
      m_TileIndex: 23
      m_TileSpriteIndex: 23
      m_TileMatrixIndex: 0
      m_TileColorIndex: 0
      m_ObjectToInstantiate: {fileID: 0}
      m_TileFlags: 1
      m_ColliderType: 1
  - first: {x: -1, y: -2, z: 0}
    second:
      m_TileIndex: 8
      m_TileSpriteIndex: 8
      m_TileMatrixIndex: 0
      m_TileColorIndex: 0
      m_ObjectToInstantiate: {fileID: 0}
      m_TileFlags: 1
      m_ColliderType: 1
  - first: {x: 0, y: -2, z: 0}
    second:
      m_TileIndex: 9
      m_TileSpriteIndex: 9
      m_TileMatrixIndex: 0
      m_TileColorIndex: 0
      m_ObjectToInstantiate: {fileID: 0}
      m_TileFlags: 1
      m_ColliderType: 1
  - first: {x: 1, y: -2, z: 0}
    second:
      m_TileIndex: 10
      m_TileSpriteIndex: 10
      m_TileMatrixIndex: 0
      m_TileColorIndex: 0
      m_ObjectToInstantiate: {fileID: 0}
      m_TileFlags: 1
      m_ColliderType: 1
  - first: {x: 2, y: -2, z: 0}
    second:
      m_TileIndex: 11
      m_TileSpriteIndex: 11
      m_TileMatrixIndex: 0
      m_TileColorIndex: 0
      m_ObjectToInstantiate: {fileID: 0}
      m_TileFlags: 1
      m_ColliderType: 1
  - first: {x: 3, y: -2, z: 0}
    second:
      m_TileIndex: 12
      m_TileSpriteIndex: 12
      m_TileMatrixIndex: 0
      m_TileColorIndex: 0
      m_ObjectToInstantiate: {fileID: 0}
      m_TileFlags: 1
      m_ColliderType: 1
  - first: {x: 4, y: -2, z: 0}
    second:
      m_TileIndex: 13
      m_TileSpriteIndex: 13
      m_TileMatrixIndex: 0
      m_TileColorIndex: 0
      m_ObjectToInstantiate: {fileID: 0}
      m_TileFlags: 1
      m_ColliderType: 1
  - first: {x: 5, y: -2, z: 0}
    second:
      m_TileIndex: 14
      m_TileSpriteIndex: 14
      m_TileMatrixIndex: 0
      m_TileColorIndex: 0
      m_ObjectToInstantiate: {fileID: 0}
      m_TileFlags: 1
      m_ColliderType: 1
  - first: {x: 6, y: -2, z: 0}
    second:
      m_TileIndex: 15
      m_TileSpriteIndex: 15
      m_TileMatrixIndex: 0
      m_TileColorIndex: 0
      m_ObjectToInstantiate: {fileID: 0}
      m_TileFlags: 1
      m_ColliderType: 1
  - first: {x: -1, y: -1, z: 0}
    second:
      m_TileIndex: 0
      m_TileSpriteIndex: 0
      m_TileMatrixIndex: 0
      m_TileColorIndex: 0
      m_ObjectToInstantiate: {fileID: 0}
      m_TileFlags: 1
      m_ColliderType: 1
  - first: {x: 0, y: -1, z: 0}
    second:
      m_TileIndex: 1
      m_TileSpriteIndex: 1
      m_TileMatrixIndex: 0
      m_TileColorIndex: 0
      m_ObjectToInstantiate: {fileID: 0}
      m_TileFlags: 1
      m_ColliderType: 1
  - first: {x: 1, y: -1, z: 0}
    second:
      m_TileIndex: 2
      m_TileSpriteIndex: 2
      m_TileMatrixIndex: 0
      m_TileColorIndex: 0
      m_ObjectToInstantiate: {fileID: 0}
      m_TileFlags: 1
      m_ColliderType: 1
  - first: {x: 2, y: -1, z: 0}
    second:
      m_TileIndex: 3
      m_TileSpriteIndex: 3
      m_TileMatrixIndex: 0
      m_TileColorIndex: 0
      m_ObjectToInstantiate: {fileID: 0}
      m_TileFlags: 1
      m_ColliderType: 1
  - first: {x: 3, y: -1, z: 0}
    second:
      m_TileIndex: 4
      m_TileSpriteIndex: 4
      m_TileMatrixIndex: 0
      m_TileColorIndex: 0
      m_ObjectToInstantiate: {fileID: 0}
      m_TileFlags: 1
      m_ColliderType: 1
  - first: {x: 4, y: -1, z: 0}
    second:
      m_TileIndex: 5
      m_TileSpriteIndex: 5
      m_TileMatrixIndex: 0
      m_TileColorIndex: 0
      m_ObjectToInstantiate: {fileID: 0}
      m_TileFlags: 1
      m_ColliderType: 1
  - first: {x: 5, y: -1, z: 0}
    second:
      m_TileIndex: 6
      m_TileSpriteIndex: 6
      m_TileMatrixIndex: 0
      m_TileColorIndex: 0
      m_ObjectToInstantiate: {fileID: 0}
      m_TileFlags: 1
      m_ColliderType: 1
  - first: {x: 6, y: -1, z: 0}
    second:
      m_TileIndex: 7
      m_TileSpriteIndex: 7
      m_TileMatrixIndex: 0
      m_TileColorIndex: 0
      m_ObjectToInstantiate: {fileID: 0}
      m_TileFlags: 1
      m_ColliderType: 1
  - first: {x: -1, y: 1, z: 0}
    second:
      m_TileIndex: 47
      m_TileSpriteIndex: 14
      m_TileMatrixIndex: 0
      m_TileColorIndex: 0
      m_ObjectToInstantiate: {fileID: 0}
      m_TileFlags: 2
      m_ColliderType: 1
  m_AnimatedTiles: {}
  m_TileAssetArray:
  - m_RefCount: 1
    m_Data: {fileID: 11400000, guid: ad2ba7fdf68e55b4d9a0d598111d0b65, type: 2}
  - m_RefCount: 1
    m_Data: {fileID: 11400000, guid: c938a6fb4eddfde4e9239c2277f20a2b, type: 2}
  - m_RefCount: 1
    m_Data: {fileID: 11400000, guid: 9c1138e4051452049a71a9f684b72841, type: 2}
  - m_RefCount: 1
    m_Data: {fileID: 11400000, guid: 9035fbc95ccf70844b1b1f25297ad243, type: 2}
  - m_RefCount: 1
    m_Data: {fileID: 11400000, guid: 61c91559e56cb564eabaeb10ab3bde70, type: 2}
  - m_RefCount: 1
    m_Data: {fileID: 11400000, guid: 3b5c24e0c3d34a54d9ebaad7519a80c9, type: 2}
  - m_RefCount: 1
    m_Data: {fileID: 11400000, guid: 70ee10370b95c5a42936a373280f15b5, type: 2}
  - m_RefCount: 1
    m_Data: {fileID: 11400000, guid: f9c5fda112a981441b531a8276f70779, type: 2}
  - m_RefCount: 1
    m_Data: {fileID: 11400000, guid: ba25bfe84b79a774eab3ac860b571688, type: 2}
  - m_RefCount: 1
    m_Data: {fileID: 11400000, guid: 738939290699db148b7110ff3c9343b8, type: 2}
  - m_RefCount: 1
    m_Data: {fileID: 11400000, guid: 6bae1021f57b8bb47b67885985ea1adf, type: 2}
  - m_RefCount: 1
    m_Data: {fileID: 11400000, guid: 24370734bfdd5d2478cac7b74050d549, type: 2}
  - m_RefCount: 1
    m_Data: {fileID: 11400000, guid: 9f8b312a1f7501d47961739e46d4e8b3, type: 2}
  - m_RefCount: 1
    m_Data: {fileID: 11400000, guid: 0a3c20e98e1748344b49a051ee189505, type: 2}
  - m_RefCount: 1
    m_Data: {fileID: 11400000, guid: 56f737c1b9b2c9f4ba06fc197b30eca7, type: 2}
  - m_RefCount: 1
    m_Data: {fileID: 11400000, guid: 748968ca93b75474890a37543986b7ee, type: 2}
  - m_RefCount: 1
    m_Data: {fileID: 11400000, guid: e450b423a3c123945aba2c782de2f6ce, type: 2}
  - m_RefCount: 1
    m_Data: {fileID: 11400000, guid: 44d938c434056e848a7b11242f78599f, type: 2}
  - m_RefCount: 1
    m_Data: {fileID: 11400000, guid: cf03b9df2be4d8d4d953832c5266056d, type: 2}
  - m_RefCount: 1
    m_Data: {fileID: 11400000, guid: e2be0b01376379b42bbb7647700d74fa, type: 2}
  - m_RefCount: 1
    m_Data: {fileID: 11400000, guid: 9b5caa3dd57c0e644b46d188cbbd14dd, type: 2}
  - m_RefCount: 1
    m_Data: {fileID: 11400000, guid: d8ce2207a535ed94d9ca775e2766134b, type: 2}
  - m_RefCount: 1
    m_Data: {fileID: 11400000, guid: 9a8fd194992c8ef4bba35455153f1063, type: 2}
  - m_RefCount: 1
    m_Data: {fileID: 11400000, guid: 272574fe80d8dcf44baacc0760e13542, type: 2}
  - m_RefCount: 1
    m_Data: {fileID: 11400000, guid: 9a9dd9958bbbf9748aa37e5105f15fc4, type: 2}
  - m_RefCount: 1
    m_Data: {fileID: 11400000, guid: 96bc5f17a91f34c47885609afe1fd887, type: 2}
  - m_RefCount: 1
    m_Data: {fileID: 11400000, guid: 573bfea93a17d2d41adf2044e27555c0, type: 2}
  - m_RefCount: 1
    m_Data: {fileID: 11400000, guid: 5078897de71f34042b6284550b069a36, type: 2}
  - m_RefCount: 1
    m_Data: {fileID: 11400000, guid: 60b67ab9d852b4647a9c65491908bef5, type: 2}
  - m_RefCount: 1
    m_Data: {fileID: 11400000, guid: b49b0454a388eb745b46a429000a845d, type: 2}
  - m_RefCount: 1
    m_Data: {fileID: 11400000, guid: 51b82643bc12f56489bc2ea324e415b4, type: 2}
  - m_RefCount: 1
    m_Data: {fileID: 11400000, guid: 2ab875e4e09fe6741a5dad0fc3cad215, type: 2}
  - m_RefCount: 1
    m_Data: {fileID: 11400000, guid: d3149757bfe2a364897ac4eec69158e9, type: 2}
  - m_RefCount: 1
    m_Data: {fileID: 11400000, guid: 77f7d3ab886fabc46afddf9e4684e460, type: 2}
  - m_RefCount: 1
    m_Data: {fileID: 11400000, guid: 80cfb048a95e47d41b50be6748eca3ff, type: 2}
  - m_RefCount: 1
    m_Data: {fileID: 11400000, guid: 642a642cf4dfb014f836a495d6627608, type: 2}
  - m_RefCount: 1
    m_Data: {fileID: 11400000, guid: 677c70e1d2cff7345abecf313065cdc0, type: 2}
  - m_RefCount: 1
    m_Data: {fileID: 11400000, guid: ad9b1c4c3febe3f43a28efa9281b168e, type: 2}
  - m_RefCount: 1
    m_Data: {fileID: 11400000, guid: 69e9ec57b09290649abd117435e456cb, type: 2}
  - m_RefCount: 1
    m_Data: {fileID: 11400000, guid: 988b2d9b2cd58194c85d8e36c245fa55, type: 2}
  - m_RefCount: 1
    m_Data: {fileID: 11400000, guid: 6ed5ab51be3d8334fa23f81110014024, type: 2}
  - m_RefCount: 1
    m_Data: {fileID: 11400000, guid: e5cf2712bf9541940bd7a05372a58b68, type: 2}
  - m_RefCount: 1
    m_Data: {fileID: 11400000, guid: 555b25cdfa2c51d4e83bc4d5a3128e1f, type: 2}
  - m_RefCount: 1
    m_Data: {fileID: 11400000, guid: 5bcf176f43fe2fd4eaa915462bc1c662, type: 2}
  - m_RefCount: 1
    m_Data: {fileID: 11400000, guid: da03ff896ffcdfe49884192d68864340, type: 2}
  - m_RefCount: 1
    m_Data: {fileID: 11400000, guid: 003cc8d1b8b21874787ce3b0ae1846a7, type: 2}
  - m_RefCount: 1
    m_Data: {fileID: 11400000, guid: ecc3f244f608ae1448ad53f76558f740, type: 2}
  - m_RefCount: 1
    m_Data: {fileID: 11400000, guid: 67c74a44cc1f3404ba5ffd2c3bba1f81, type: 2}
  m_TileSpriteArray:
  - m_RefCount: 1
    m_Data: {fileID: -4398281305165748736, guid: d8c263602e45b5746af67d7a2e56729a,
      type: 3}
  - m_RefCount: 1
    m_Data: {fileID: -1405015913854574551, guid: d8c263602e45b5746af67d7a2e56729a,
      type: 3}
  - m_RefCount: 1
    m_Data: {fileID: -3578984388346956572, guid: d8c263602e45b5746af67d7a2e56729a,
      type: 3}
  - m_RefCount: 1
    m_Data: {fileID: 3833958912079647246, guid: d8c263602e45b5746af67d7a2e56729a,
      type: 3}
  - m_RefCount: 1
    m_Data: {fileID: 3339425250378243046, guid: d8c263602e45b5746af67d7a2e56729a,
      type: 3}
  - m_RefCount: 1
    m_Data: {fileID: 4948585347635059097, guid: d8c263602e45b5746af67d7a2e56729a,
      type: 3}
  - m_RefCount: 1
    m_Data: {fileID: -8911049960561126340, guid: d8c263602e45b5746af67d7a2e56729a,
      type: 3}
  - m_RefCount: 1
    m_Data: {fileID: -4796202193549366194, guid: d8c263602e45b5746af67d7a2e56729a,
      type: 3}
  - m_RefCount: 1
    m_Data: {fileID: 8236765606727089276, guid: d8c263602e45b5746af67d7a2e56729a,
      type: 3}
  - m_RefCount: 1
    m_Data: {fileID: -7110888402971410058, guid: d8c263602e45b5746af67d7a2e56729a,
      type: 3}
  - m_RefCount: 1
    m_Data: {fileID: 5700619954055950710, guid: d8c263602e45b5746af67d7a2e56729a,
      type: 3}
  - m_RefCount: 1
    m_Data: {fileID: 3178957780594122410, guid: d8c263602e45b5746af67d7a2e56729a,
      type: 3}
  - m_RefCount: 1
    m_Data: {fileID: 5725404703090269145, guid: d8c263602e45b5746af67d7a2e56729a,
      type: 3}
  - m_RefCount: 1
    m_Data: {fileID: 2806890337776109250, guid: d8c263602e45b5746af67d7a2e56729a,
      type: 3}
  - m_RefCount: 2
    m_Data: {fileID: 5410968166137016168, guid: d8c263602e45b5746af67d7a2e56729a,
      type: 3}
  - m_RefCount: 1
    m_Data: {fileID: -5494524731967381821, guid: d8c263602e45b5746af67d7a2e56729a,
      type: 3}
  - m_RefCount: 1
    m_Data: {fileID: -3821329337742601268, guid: d8c263602e45b5746af67d7a2e56729a,
      type: 3}
  - m_RefCount: 1
    m_Data: {fileID: -3776418675083520583, guid: d8c263602e45b5746af67d7a2e56729a,
      type: 3}
  - m_RefCount: 1
    m_Data: {fileID: -4567557738004491347, guid: d8c263602e45b5746af67d7a2e56729a,
      type: 3}
  - m_RefCount: 1
    m_Data: {fileID: 1014630301700385526, guid: d8c263602e45b5746af67d7a2e56729a,
      type: 3}
  - m_RefCount: 1
    m_Data: {fileID: -8583354452898074772, guid: d8c263602e45b5746af67d7a2e56729a,
      type: 3}
  - m_RefCount: 1
    m_Data: {fileID: 3627047620324887415, guid: d8c263602e45b5746af67d7a2e56729a,
      type: 3}
  - m_RefCount: 1
    m_Data: {fileID: 585919866924806831, guid: d8c263602e45b5746af67d7a2e56729a, type: 3}
  - m_RefCount: 1
    m_Data: {fileID: 6126550814495063591, guid: d8c263602e45b5746af67d7a2e56729a,
      type: 3}
  - m_RefCount: 1
    m_Data: {fileID: -8721773861039119153, guid: d8c263602e45b5746af67d7a2e56729a,
      type: 3}
  - m_RefCount: 1
    m_Data: {fileID: 2163829819466252403, guid: d8c263602e45b5746af67d7a2e56729a,
      type: 3}
  - m_RefCount: 1
    m_Data: {fileID: -2193262861699285043, guid: d8c263602e45b5746af67d7a2e56729a,
      type: 3}
  - m_RefCount: 1
    m_Data: {fileID: -5619623432418876124, guid: d8c263602e45b5746af67d7a2e56729a,
      type: 3}
  - m_RefCount: 1
    m_Data: {fileID: -7879478489436564571, guid: d8c263602e45b5746af67d7a2e56729a,
      type: 3}
  - m_RefCount: 1
    m_Data: {fileID: -915509776290563865, guid: d8c263602e45b5746af67d7a2e56729a,
      type: 3}
  - m_RefCount: 1
    m_Data: {fileID: -2487135850117574890, guid: d8c263602e45b5746af67d7a2e56729a,
      type: 3}
  - m_RefCount: 1
    m_Data: {fileID: 5652246567628304301, guid: d8c263602e45b5746af67d7a2e56729a,
      type: 3}
  - m_RefCount: 1
    m_Data: {fileID: -2236023316985018111, guid: d8c263602e45b5746af67d7a2e56729a,
      type: 3}
  - m_RefCount: 1
    m_Data: {fileID: -4724126520347103837, guid: d8c263602e45b5746af67d7a2e56729a,
      type: 3}
  - m_RefCount: 1
    m_Data: {fileID: -5024911370421561119, guid: d8c263602e45b5746af67d7a2e56729a,
      type: 3}
  - m_RefCount: 1
    m_Data: {fileID: 3873937764787038716, guid: d8c263602e45b5746af67d7a2e56729a,
      type: 3}
  - m_RefCount: 1
    m_Data: {fileID: 3447424701049928622, guid: d8c263602e45b5746af67d7a2e56729a,
      type: 3}
  - m_RefCount: 1
    m_Data: {fileID: -8971095515350394972, guid: d8c263602e45b5746af67d7a2e56729a,
      type: 3}
  - m_RefCount: 1
    m_Data: {fileID: 3244985786843018944, guid: d8c263602e45b5746af67d7a2e56729a,
      type: 3}
  - m_RefCount: 1
    m_Data: {fileID: 4083303182727868005, guid: d8c263602e45b5746af67d7a2e56729a,
      type: 3}
  - m_RefCount: 1
    m_Data: {fileID: 8409630721043959764, guid: d8c263602e45b5746af67d7a2e56729a,
      type: 3}
  - m_RefCount: 1
    m_Data: {fileID: -3183618181722749633, guid: d8c263602e45b5746af67d7a2e56729a,
      type: 3}
  - m_RefCount: 1
    m_Data: {fileID: -1864063034343372559, guid: d8c263602e45b5746af67d7a2e56729a,
      type: 3}
  - m_RefCount: 1
    m_Data: {fileID: -7567695917322089715, guid: d8c263602e45b5746af67d7a2e56729a,
      type: 3}
  - m_RefCount: 1
    m_Data: {fileID: 9207316590474888287, guid: d8c263602e45b5746af67d7a2e56729a,
      type: 3}
  - m_RefCount: 1
    m_Data: {fileID: -8008438376682758897, guid: d8c263602e45b5746af67d7a2e56729a,
      type: 3}
  - m_RefCount: 1
    m_Data: {fileID: -6034339550977541971, guid: d8c263602e45b5746af67d7a2e56729a,
      type: 3}
  m_TileMatrixArray:
  - m_RefCount: 48
    m_Data:
      e00: 1
      e01: 0
      e02: 0
      e03: 0
      e10: 0
      e11: 1
      e12: 0
      e13: 0
      e20: 0
      e21: 0
      e22: 1
      e23: 0
      e30: 0
      e31: 0
      e32: 0
      e33: 1
  m_TileColorArray:
  - m_RefCount: 48
    m_Data: {r: 1, g: 1, b: 1, a: 1}
  m_AnimationFrameRate: 1
  m_Color: {r: 1, g: 1, b: 1, a: 1}
  m_Origin: {x: -1, y: -6, z: 0}
  m_Size: {x: 8, y: 8, z: 1}
  m_TileAnchor: {x: 0.5, y: 0.5, z: 0}
  m_TileOrientation: 0
  m_TileOrientationMatrix:
    e00: 1
    e01: 0
    e02: 0
    e03: 0
    e10: 0
    e11: 1
    e12: 0
    e13: 0
    e20: 0
    e21: 0
    e22: 1
    e23: 0
    e30: 0
    e31: 0
    e32: 0
    e33: 1
--- !u!483693784 &6202583223144919467
TilemapRenderer:
  m_ObjectHideFlags: 0
  m_CorrespondingSourceObject: {fileID: 0}
  m_PrefabInstance: {fileID: 0}
  m_PrefabAsset: {fileID: 0}
  m_GameObject: {fileID: 6868368698242074875}
  m_Enabled: 0
  m_CastShadows: 0
  m_ReceiveShadows: 0
  m_DynamicOccludee: 0
  m_MotionVectors: 1
  m_LightProbeUsage: 0
  m_ReflectionProbeUsage: 0
  m_RenderingLayerMask: 1
  m_RendererPriority: 0
  m_Materials:
  - {fileID: 10754, guid: 0000000000000000f000000000000000, type: 0}
  m_StaticBatchInfo:
    firstSubMesh: 0
    subMeshCount: 0
  m_StaticBatchRoot: {fileID: 0}
  m_ProbeAnchor: {fileID: 0}
  m_LightProbeVolumeOverride: {fileID: 0}
  m_ScaleInLightmap: 1
  m_ReceiveGI: 1
  m_PreserveUVs: 0
  m_IgnoreNormalsForChartDetection: 0
  m_ImportantGI: 0
  m_StitchLightmapSeams: 1
  m_SelectedEditorRenderState: 0
  m_MinimumChartSize: 4
  m_AutoUVMaxDistance: 0.5
  m_AutoUVMaxAngle: 89
  m_LightmapParameters: {fileID: 0}
  m_SortingLayerID: 0
  m_SortingLayer: 0
  m_SortingOrder: 0
  m_ChunkSize: {x: 32, y: 32, z: 32}
  m_ChunkCullingBounds: {x: 0, y: 0, z: 0}
  m_MaxChunkCount: 16
  m_MaxFrameAge: 16
  m_SortOrder: 0
  m_Mode: 0
  m_DetectChunkCullingBounds: 0
  m_MaskInteraction: 0
--- !u!114 &4209794771996145900
MonoBehaviour:
  m_ObjectHideFlags: 0
  m_CorrespondingSourceObject: {fileID: 0}
  m_PrefabInstance: {fileID: 0}
  m_PrefabAsset: {fileID: 0}
  m_GameObject: {fileID: 0}
  m_Enabled: 1
  m_EditorHideFlags: 0
  m_Script: {fileID: 11500000, guid: 9ea68dde30c2924499d4a0a3e9fffcc3, type: 3}
  m_Name: Palette Settings
  m_EditorClassIdentifier: 
  cellSizing: 0
